…
g1 <- ggplot(type_stores, aes(x = type, y = sales, fill = factor(type))) +
  geom_col() +
  facet_wrap(vars(year), nrow = 1) +
  theme(legend.position = "none") + 
  scale_y_continuous(labels = scales::label_number(suffix = "M", scale = 0.000001)) + 
  labs(x = "Type", y = "Sales (million)", title = "Comparing store sales by type")
size_sales <- whole %>%
  group_by(type, date) %>%
  summarize(total_sales = sum(weekly_sales, na.rm = TRUE), store_size = mean(size, na.rm = TRUE)) 
size_sales

## # A tibble: 546 × 4
## # Groups:   type [3]
##    type  date       total_sales store_size
##    <chr> <date>           <dbl>      <dbl>
##  1 A     2010-02-05   32359955.    183431.
##  2 A     2010-02-12   31197661.    183572.
##  3 A     2010-02-19   31262476.    183092.
##  4 A     2010-02-26   28209053.    183168.
##  5 A     2010-03-05   30232592.    183261.
##  6 A     2010-03-12   29584950.    183082.
##  7 A     2010-03-19   28933784.    183114.
##  8 A     2010-03-26   28089824.    183407.
##  9 A     2010-04-02   32532853.    183382.
## 10 A     2010-04-09   30556748.    183074.
## # … with 536 more rows
…
median_sales <- whole %>% 
  mutate(month = month(date, label = TRUE)) %>%
  group_by(month, store) %>% 
  summarize(sales = median(weekly_sales, na.rm = TRUE))
median_sales

## # A tibble: 540 × 3
## # Groups:   month [12]
##    month store  sales
##    <ord> <dbl>  <dbl>
##  1 Jan       1  8238.
##  2 Jan       2 11666.
##  3 Jan       3  2317.
##  4 Jan       4 12391.
##  5 Jan       5  2172.
##  6 Jan       6 11159.
##  7 Jan       7  4113.
##  8 Jan       8  5799.
##  9 Jan       9  3287.
## 10 Jan      10 12512.
## # … with 530 more rows
…
